{
  "connection": "default",
  "collectionName": "resultados",
  "info": {
    "name": "Resultado"
  },
  "options": {
    "increments": true,
    "timestamps": true
  },
  "attributes": {
    "corrida": {
      "model": "corrida"
    },
    "racer": {
      "model": "racer"
    },
    "points": {
      "type": "integer"
    }
  }
}
