{
  "routes": [
    {
      "method": "GET",
      "path": "/racers",
      "handler": "racer.find",
      "config": {
        "policies": []
      }
    },
    {
      "method": "GET",
      "path": "/racers/count",
      "handler": "racer.count",
      "config": {
        "policies": []
      }
    },
    {
      "method": "GET",
      "path": "/racers/:id",
      "handler": "racer.findOne",
      "config": {
        "policies": []
      }
    },
    {
      "method": "POST",
      "path": "/racers",
      "handler": "racer.create",
      "config": {
        "policies": []
      }
    },
    {
      "method": "PUT",
      "path": "/racers/:id",
      "handler": "racer.update",
      "config": {
        "policies": []
      }
    },
    {
      "method": "DELETE",
      "path": "/racers/:id",
      "handler": "racer.delete",
      "config": {
        "policies": []
      }
    }
  ]
}
