{
  "routes": [
    {
      "method": "GET",
      "path": "/chiefs",
      "handler": "chief.find",
      "config": {
        "policies": []
      }
    },
    {
      "method": "GET",
      "path": "/chiefs/count",
      "handler": "chief.count",
      "config": {
        "policies": []
      }
    },
    {
      "method": "GET",
      "path": "/chiefs/:id",
      "handler": "chief.findOne",
      "config": {
        "policies": []
      }
    },
    {
      "method": "POST",
      "path": "/chiefs",
      "handler": "chief.create",
      "config": {
        "policies": []
      }
    },
    {
      "method": "PUT",
      "path": "/chiefs/:id",
      "handler": "chief.update",
      "config": {
        "policies": []
      }
    },
    {
      "method": "DELETE",
      "path": "/chiefs/:id",
      "handler": "chief.delete",
      "config": {
        "policies": []
      }
    }
  ]
}
